﻿<?xml version="1.0" encoding="utf-8"?>
<svg version="1.1" xmlns:xlink="http://www.w3.org/1999/xlink" width="2px" height="21px" xmlns="http://www.w3.org/2000/svg">
  <g transform="matrix(1 0 0 1 -711 -202 )">
    <path d="M 711.5 202  L 711.5 222  " stroke-width="1" stroke="#797979" fill="none" />
  </g>
</svg>